{
  "name": "visual-link-companion",
  "version": "1.0.0",
  "description": "",
  "main": "main.js",
  "dependencies": {
    "d3": "^6.1.1",
    "d3-3": "0.0.0",
    "electron-window-manager": "^1.0.6",
    "jquery": "^3.4.1",
    "network": "^0.4.1",
    "qrcode": "^1.4.4",
    "socket.io": "^2.3.0",
    "topojson-client": "^3.1.0"
  },
  "devDependencies": {
    "electron": "^8.0.1"
  },
  "scripts": {
    "start": "electron ."
  },
  "repository": {
    "type": "git",
    "url": "https://bitbucket.org/jordanpg/visual-link-companion/src/master/"
  },
  "author": "Jordan Gilbreath",
  "license": "ISC"
}
